{
  "MRData": {
    "xmlns": "http:\/\/ergast.com\/mrd\/1.5",
    "series": "f1",
    "url": "http://ergast.com/api/f1/2021/constructors/alphatauri/constructorstandings.json",
    "limit": "30",
    "offset": "0",
    "total": "1",
    "StandingsTable": {
      "season": "2021",
      "constructorId": "alphatauri",
      "StandingsLists": [
        {
          "season": "2021",
          "round": "22",
          "ConstructorStandings": [
            {
              "position": "6",
              "positionText": "6",
              "points": "142",
              "wins": "0",
              "Constructor": {
                "constructorId": "alphatauri",
                "url": "http://en.wikipedia.org/wiki/Scuderia_AlphaTauri",
                "name": "AlphaTauri",
                "nationality": "Italian"
              }
            }
          ]
        }
      ]
    }
  }
}